electric circuit/material/ALL0002/F0002CH1.CSV

Record Length,2.500000e+03,,  -0.000003200000,  -0.80000,
Sample Interval,4.000000e-08,,  -0.000003160000,  -0.80000,
Trigger Point,8.000000000000e+01,,  -0.000003120000,  -0.80000,
,,,  -0.000003080000,  -0.80000,
,,,  -0.000003040000,  -0.80000,
,,,  -0.000003000000,  -0.80000,
Source,CH1,,  -0.000002960000,  -0.80000,
Vertical Units,V,,  -0.000002920000,  -0.80000,
Vertical Scale,1.000000e+01,,  -0.000002880000,  -0.40000,
Vertical Offset,-3.800000e+01,,  -0.000002840000,  -0.80000,
Horizontal Units,s,,  -0.000002800000,  -0.80000,
Horizontal Scale,1.000000e-05,,  -0.000002760000,  -0.40000,
Pt Fmt,Y,,  -0.000002720000,  -0.80000,
Yzero,0.000000e+00,,  -0.000002680000,  -0.80000,
Probe Atten,1.000000e+01,,  -0.000002640000,  -0.80000,
Model Number,TDS2001C,,  -0.000002600000,  -0.80000,
Serial Number,C030864,,  -0.000002560000,  -0.80000,
Firmware Version,FV:v24.26,,  -0.000002520000,  -0.80000,
,,,-00.000002480000,  -0.80000,
,,,-00.000002440000,  -0.80000,
,,,-00.000002400000,  -0.80000,
,,,-00.000002360000,  -0.80000,
,,,-00.000002320000,  -0.80000,
,,,-00.000002280000,  -0.80000,
,,,-00.000002240000,  -0.40000,
,,,-00.000002200000,  -0.80000,
,,,-00.000002160000,  -0.80000,
,,,-00.000002120000,  -0.80000,
,,,-00.000002080000,  -0.80000,
,,,-00.000002040000,  -0.40000,
,,,-00.000002000000,  -0.40000,
,,,-00.000001960000,  -0.80000,
,,,-00.000001920000,  -0.80000,
,,,-00.000001880000,  -0.80000,
,,,-00.000001840000,  -0.40000,
,,,-00.000001800000,  -0.40000,
,,,-00.000001760000,  -0.80000,
,,,-00.000001720000,  -0.40000,
,,,-00.000001680000,  -0.80000,
,,,-00.000001640000,  -0.80000,
,,,-00.000001600000,  -0.80000,
,,,-00.000001560000,  -0.80000,
,,,-00.000001520000,  -0.40000,
,,,-00.000001480000,  -0.80000,
,,,-00.000001440000,  -0.40000,
,,,-00.000001400000,  -0.40000,
,,,-00.000001360000,  -0.80000,
,,,-00.000001320000,  -0.40000,
,,,-00.000001280000,   1.20000,
,,,-00.000001240000,   2.40000,
,,,-00.000001200000,   2.80000,
,,,-00.000001160000,   2.80000,
,,,-00.000001120000,   3.20000,
,,,-00.000001080000,   3.20000,
,,,-00.000001040000,   3.20000,
,,,-00.000001000000,   3.20000,
,,,-00.000000960000,   3.20000,
,,,-00.000000920000,   3.20000,
,,,-00.000000880000,   3.60000,
,,,-00.000000840000,   3.60000,
,,,-00.000000800000,   4.00000,
,,,-00.000000760000,   4.00000,
,,,-00.000000720000,   4.40000,
,,,-00.000000680000,   4.40000,
,,,-00.000000640000,   4.80000,
,,,-00.000000600000,   5.20000,
,,,-00.000000560000,   5.60000,
,,,-00.000000520000,   5.60000,
,,,-00.000000480000,   6.00000,
,,,-00.000000440000,   6.40000,
,,,-00.000000400000,   6.80000,
,,,-00.000000360000,   7.20000,
,,,-00.000000320000,   7.60000,
,,,-00.000000280000,   8.00000,
,,,-00.000000240000,   8.40000,
,,,-00.000000200000,   8.80000,
,,,-00.000000160000,   9.20000,
,,,-00.000000120000,  10.00000,
,,,-00.000000080000,  10.40000,
,,,-00.000000040000,  10.80000,
,,,-00.000000000000,  11.20000,
,,,00.000000040000,  11.60000,
,,,00.000000080000,  12.00000,
,,,00.000000120000,  12.80000,
,,,00.000000160000,  13.20000,
,,,00.000000200000,  13.60000,
,,,00.000000240000,  14.00000,
,,,00.000000280000,  14.80000,
,,,00.000000320000,  15.60000,
,,,00.000000360000,  16.00000,
,,,00.000000400000,  16.40000,
,,,00.000000440000,  17.20000,
,,,00.000000480000,  17.60000,
,,,00.000000520000,  18.40000,
,,,00.000000560000,  18.80000,
,,,00.000000600000,  19.20000,
,,,00.000000640000,  20.00000,
,,,00.000000680000,  20.40000,
,,,00.000000720000,  21.20000,
,,,00.000000760000,  21.60000,
,,,00.000000800000,  22.40000,
,,,00.000000840000,  22.80000,
,,,00.000000880000,  23.60000,
,,,00.000000920000,  24.00000,
,,,00.000000960000,  24.80000,
,,,00.000001000000,  25.20000,
,,,00.000001040000,  26.00000,
,,,00.000001080000,  26.40000,
,,,00.000001120000,  27.20000,
,,,00.000001160000,  27.60000,
,,,00.000001200000,  28.40000,
,,,00.000001240000,  28.80000,
,,,00.000001280000,  29.60000,
,,,00.000001320000,  30.40000,
,,,00.000001360000,  30.80000,
,,,00.000001400000,  31.60000,
,,,00.000001440000,  32.00000,
,,,00.000001480000,  32.80000,
,,,00.000001520000,  33.20000,
,,,00.000001560000,  34.00000,
,,,00.000001600000,  34.40000,
,,,00.000001640000,  34.80000,
,,,00.000001680000,  35.60000,
,,,00.000001720000,  36.40000,
,,,00.000001760000,  36.80000,
,,,00.000001800000,  37.60000,
,,,00.000001840000,  38.00000,
,,,00.000001880000,  38.80000,
,,,00.000001920000,  39.20000,
,,,00.000001960000,  39.60000,
,,,00.000002000000,  40.00000,
,,,00.000002040000,  40.80000,
,,,00.000002080000,  41.20000,
,,,00.000002120000,  42.00000,
,,,00.000002160000,  42.40000,
,,,00.000002200000,  42.80000,
,,,00.000002240000,  43.60000,
,,,00.000002280000,  44.00000,
,,,00.000002320000,  44.80000,
,,,00.000002360000,  45.20000,
,,,00.000002400000,  45.60000,
,,,00.000002440000,  46.00000,
,,,00.000002480000,  46.80000,
,,,00.000002520000,  47.20000,
,,,00.000002560000,  47.60000,
,,,00.000002600000,  48.00000,
,,,00.000002640000,  48.80000,
,,,00.000002680000,  49.20000,
,,,00.000002720000,  49.60000,
,,,00.000002760000,  50.40000,
,,,00.000002800000,  50.80000,
,,,00.000002840000,  51.20000,
,,,00.000002880000,  51.60000,
,,,00.000002920000,  52.00000,
,,,00.000002960000,  52.40000,
,,,00.000003000000,  52.80000,
,,,00.000003040000,  53.20000,
,,,00.000003080000,  53.60000,
,,,00.000003120000,  54.40000,
,,,00.000003160000,  54.80000,
,,,00.000003200000,  55.20000,
,,,00.000003240000,  55.60000,
,,,00.000003280000,  56.00000,
,,,00.000003320000,  56.40000,
,,,00.000003360000,  56.80000,
,,,00.000003400000,  57.20000,
,,,00.000003440000,  57.60000,
,,,00.000003480000,  58.00000,
,,,00.000003520000,  58.40000,
,,,00.000003560000,  58.40000,
,,,00.000003600000,  59.20000,
,,,00.000003640000,  59.60000,
,,,00.000003680000,  60.00000,
,,,00.000003720000,  60.00000,
,,,00.000003760000,  60.40000,
,,,00.000003800000,  60.80000,
,,,00.000003840000,  61.20000,
,,,00.000003880000,  61.60000,
,,,00.000003920000,  62.00000,
,,,00.000003960000,  62.40000,
,,,00.000004000000,  62.40000,
,,,00.000004040000,  62.80000,
,,,00.000004080000,  63.20000,
,,,00.000004120000,  63.20000,
,,,00.000004160000,  63.60000,
,,,00.000004200000,  64.00000,
,,,00.000004240000,  64.40000,
,,,00.000004280000,  64.40000,
,,,00.000004320000,  64.80000,
,,,00.000004360000,  65.20000,
,,,00.000004400000,  65.20000,
,,,00.000004440000,  65.60000,
,,,00.000004480000,  66.00000,
,,,00.000004520000,  66.00000,
,,,00.000004560000,  66.40000,
,,,00.000004600000,  66.40000,
,,,00.000004640000,  66.80000,
,,,00.000004680000,  67.20000,
,,,00.000004720000,  67.60000,
,,,00.000004760000,  67.60000,
,,,00.000004800000,  67.60000,
,,,00.000004840000,  68.00000,
,,,00.000004880000,  68.00000,
,,,00.000004920000,  68.40000,
,,,00.000004960000,  68.40000,
,,,00.000005000000,  68.80000,
,,,00.000005040000,  68.80000,
,,,00.000005080000,  69.20000,
,,,00.000005120000,  69.20000,
,,,00.000005160000,  69.60000,
,,,00.000005200000,  69.60000,
,,,00.000005240000,  69.60000,
,,,00.000005280000,  70.00000,
,,,00.000005320000,  70.00000,
,,,00.000005360000,  70.40000,
,,,00.000005400000,  70.40000,
,,,00.000005440000,  70.40000,
,,,00.000005480000,  70.80000,
,,,00.000005520000,  70.80000,
,,,00.000005560000,  71.20000,
,,,00.000005600000,  70.80000,
,,,00.000005640000,  71.20000,
,,,00.000005680000,  71.20000,
,,,00.000005720000,  71.20000,
,,,00.000005760000,  71.60000,
,,,00.000005800000,  71.60000,
,,,00.000005840000,  71.60000,
,,,00.000005880000,  72.00000,
,,,00.000005920000,  72.00000,
,,,00.000005960000,  72.00000,
,,,00.000006000000,  72.00000,
,,,00.000006040000,  72.40000,
,,,00.000006080000,  72.40000,
,,,00.000006120000,  72.40000,
,,,00.000006160000,  72.40000,
,,,00.000006200000,  72.40000,
,,,00.000006240000,  72.40000,
,,,00.000006280000,  72.80000,
,,,00.000006320000,  72.80000,
,,,00.000006360000,  72.80000,
,,,00.000006400000,  72.80000,
,,,00.000006440000,  72.80000,
,,,00.000006480000,  72.80000,
,,,00.000006520000,  73.20000,
,,,00.000006560000,  73.20000,
,,,00.000006600000,  73.20000,
,,,00.000006640000,  73.20000,
,,,00.000006680000,  73.20000,
,,,00.000006720000,  73.20000,
,,,00.000006760000,  73.20000,
,,,00.000006800000,  73.20000,
,,,00.000006840000,  73.20000,
,,,00.000006880000,  73.20000,
,,,00.000006920000,  73.20000,
,,,00.000006960000,  73.20000,
,,,00.000007000000,  73.20000,
,,,00.000007040000,  73.20000,
,,,00.000007080000,  73.20000,
,,,00.000007120000,  73.60000,
,,,00.000007160000,  73.20000,
,,,00.000007200000,  73.60000,
,,,00.000007240000,  73.20000,
,,,00.000007280000,  73.20000,
,,,00.000007320000,  73.20000,
,,,00.000007360000,  73.20000,
,,,00.000007400000,  73.20000,
,,,00.000007440000,  73.20000,
,,,00.000007480000,  73.20000,
,,,00.000007520000,  73.20000,
,,,00.000007560000,  73.20000,
,,,00.000007600000,  73.20000,
,,,00.000007640000,  73.20000,
,,,00.000007680000,  73.20000,
,,,00.000007720000,  73.20000,
,,,00.000007760000,  73.20000,
,,,00.000007800000,  73.20000,
,,,00.000007840000,  73.20000,
,,,00.000007880000,  73.20000,
,,,00.000007920000,  73.20000,
,,,00.000007960000,  73.20000,
,,,00.000008000000,  72.80000,
,,,00.000008040000,  72.80000,
,,,00.000008080000,  72.80000,
,,,00.000008120000,  72.80000,
,,,00.000008160000,  72.80000,
,,,00.000008200000,  72.80000,
,,,00.000008240000,  72.40000,
,,,00.000008280000,  72.40000,
,,,00.000008320000,  72.40000,
,,,00.000008360000,  72.40000,
,,,00.000008400000,  72.40000,
,,,00.000008440000,  72.40000,
,,,00.000008480000,  72.40000,
,,,00.000008520000,  72.40000,
,,,00.000008560000,  72.00000,
,,,00.000008600000,  72.00000,
,,,00.000008640000,  72.00000,
,,,00.000008680000,  72.00000,
,,,00.000008720000,  72.00000,
,,,00.000008760000,  71.60000,
,,,00.000008800000,  71.60000,
,,,00.000008840000,  71.60000,
,,,00.000008880000,  71.60000,
,,,00.000008920000,  71.60000,
,,,00.000008960000,  71.20000,
,,,00.000009000000,  71.20000,
,,,00.000009040000,  71.20000,
,,,00.000009080000,  71.20000,
,,,00.000009120000,  70.80000,
,,,00.000009160000,  70.80000,
,,,00.000009200000,  70.80000,
,,,00.000009240000,  70.80000,
,,,00.000009280000,  70.80000,
,,,00.000009320000,  70.40000,
,,,00.000009360000,  70.40000,
,,,00.000009400000,  70.40000,
,,,00.000009440000,  70.40000,
,,,00.000009480000,  70.40000,
,,,00.000009520000,  70.40000,
,,,00.000009560000,  70.00000,
,,,00.000009600000,  70.00000,
,,,00.000009640000,  70.00000,
,,,00.000009680000,  69.60000,
,,,00.000009720000,  69.60000,
,,,00.000009760000,  69.60000,
,,,00.000009800000,  69.60000,
,,,00.000009840000,  69.60000,
,,,00.000009880000,  69.20000,
,,,00.000009920000,  69.20000,
,,,00.000009960000,  69.20000,
,,,00.000010000000,  68.80000,
,,,00.000010040000,  68.80000,
,,,00.000010080000,  68.80000,
,,,00.000010120000,  68.80000,
,,,00.000010160000,  68.40000,
,,,00.000010200000,  68.40000,
,,,00.000010240000,  68.40000,
,,,00.000010280000,  68.40000,
,,,00.000010320000,  68.00000,
,,,00.000010360000,  68.00000,
,,,00.000010400000,  68.00000,
,,,00.000010440000,  67.60000,
,,,00.000010480000,  67.60000,
,,,00.000010520000,  67.60000,
,,,00.000010560000,  67.60000,
,,,00.000010600000,  67.60000,
,,,00.000010640000,  67.20000,
,,,00.000010680000,  67.20000,
,,,00.000010720000,  66.80000,
,,,00.000010760000,  66.80000,
,,,00.000010800000,  66.80000,
,,,00.000010840000,  66.80000,
,,,00.000010880000,  66.40000,
,,,00.000010920000,  66.40000,
,,,00.000010960000,  66.40000,
,,,00.000011000000,  66.40000,
,,,00.000011040000,  66.00000,
,,,00.000011080000,  66.00000,
,,,00.000011120000,  65.60000,
,,,00.000011160000,  65.60000,
,,,00.000011200000,  65.60000,
,,,00.000011240000,  65.60000,
,,,00.000011280000,  65.20000,
,,,00.000011320000,  65.20000,
,,,00.000011360000,  65.20000,
,,,00.000011400000,  65.20000,
,,,00.000011440000,  64.80000,
,,,00.000011480000,  64.80000,
,,,00.000011520000,  64.40000,
,,,00.000011560000,  64.40000,
,,,00.000011600000,  64.40000,
,,,00.000011640000,  64.40000,
,,,00.000011680000,  64.00000,
,,,00.000011720000,  64.00000,
,,,00.000011760000,  63.60000,
,,,00.000011800000,  63.60000,
,,,00.000011840000,  63.60000,
,,,00.000011880000,  63.60000,
,,,00.000011920000,  63.20000,
,,,00.000011960000,  63.20000,
,,,00.000012000000,  63.20000,
,,,00.000012040000,  62.80000,
,,,00.000012080000,  62.80000,
,,,00.000012120000,  62.80000,
,,,00.000012160000,  62.80000,
,,,00.000012200000,  62.40000,
,,,00.000012240000,  62.40000,
,,,00.000012280000,  62.40000,
,,,00.000012320000,  62.00000,
,,,00.000012360000,  62.00000,
,,,00.000012400000,  62.00000,
,,,00.000012440000,  61.60000,
,,,00.000012480000,  61.60000,
,,,00.000012520000,  61.60000,
,,,00.000012560000,  61.20000,
,,,00.000012600000,  61.20000,
,,,00.000012640000,  61.20000,
,,,00.000012680000,  60.80000,
,,,00.000012720000,  60.80000,
,,,00.000012760000,  60.80000,
,,,00.000012800000,  60.40000,
,,,00.000012840000,  60.40000,
,,,00.000012880000,  60.40000,
,,,00.000012920000,  60.40000,
,,,00.000012960000,  60.00000,
,,,00.000013000000,  60.00000,
,,,00.000013040000,  60.00000,
,,,00.000013080000,  59.60000,
,,,00.000013120000,  59.60000,
,,,00.000013160000,  59.60000,
,,,00.000013200000,  59.20000,
,,,00.000013240000,  59.20000,
,,,00.000013280000,  59.20000,
,,,00.000013320000,  58.80000,
,,,00.000013360000,  58.80000,
,,,00.000013400000,  58.80000,
,,,00.000013440000,  58.80000,
,,,00.000013480000,  58.40000,
,,,00.000013520000,  58.40000,
,,,00.000013560000,  58.40000,
,,,00.000013600000,  58.40000,
,,,00.000013640000,  58.00000,
,,,00.000013680000,  58.00000,
,,,00.000013720000,  57.60000,
,,,00.000013760000,  57.60000,
,,,00.000013800000,  57.60000,
,,,00.000013840000,  57.20000,
,,,00.000013880000,  57.20000,
,,,00.000013920000,  57.20000,
,,,00.000013960000,  57.20000,
,,,00.000014000000,  56.80000,
,,,00.000014040000,  56.80000,
,,,00.000014080000,  56.80000,
,,,00.000014120000,  56.40000,
,,,00.000014160000,  56.40000,
,,,00.000014200000,  56.40000,
,,,00.000014240000,  56.40000,
,,,00.000014280000,  56.00000,
,,,00.000014320000,  56.00000,
,,,00.000014360000,  55.60000,
,,,00.000014400000,  55.60000,
,,,00.000014440000,  55.60000,
,,,00.000014480000,  55.60000,
,,,00.000014520000,  55.20000,
,,,00.000014560000,  55.20000,
,,,00.000014600000,  54.80000,
,,,00.000014640000,  54.80000,
,,,00.000014680000,  54.80000,
,,,00.000014720000,  54.80000,
,,,00.000014760000,  54.40000,
,,,00.000014800000,  54.40000,
,,,00.000014840000,  54.40000,
,,,00.000014880000,  54.00000,
,,,00.000014920000,  54.00000,
,,,00.000014960000,  54.00000,
,,,00.000015000000,  54.00000,
,,,00.000015040000,  53.60000,
,,,00.000015080000,  53.60000,
,,,00.000015120000,  53.60000,
,,,00.000015160000,  53.20000,
,,,00.000015200000,  53.20000,
,,,00.000015240000,  53.20000,
,,,00.000015280000,  53.20000,
,,,00.000015320000,  52.80000,
,,,00.000015360000,  52.80000,
,,,00.000015400000,  52.80000,
,,,00.000015440000,  52.40000,
,,,00.000015480000,  52.40000,
,,,00.000015520000,  52.40000,
,,,00.000015560000,  52.40000,
,,,00.000015600000,  52.40000,
,,,00.000015640000,  52.00000,
,,,00.000015680000,  52.00000,
,,,00.000015720000,  51.60000,
,,,00.000015760000,  51.60000,
,,,00.000015800000,  51.60000,
,,,00.000015840000,  51.60000,
,,,00.000015880000,  51.60000,
,,,00.000015920000,  51.20000,
,,,00.000015960000,  51.20000,
,,,00.000016000000,  51.20000,
,,,00.000016040000,  50.80000,
,,,00.000016080000,  50.80000,
,,,00.000016120000,  50.80000,
,,,00.000016160000,  50.40000,
,,,00.000016200000,  50.40000,
,,,00.000016240000,  50.40000,
,,,00.000016280000,  50.40000,
,,,00.000016320000,  50.00000,
,,,00.000016360000,  50.00000,
,,,00.000016400000,  50.00000,
,,,00.000016440000,  50.00000,
,,,00.000016480000,  49.60000,
,,,00.000016520000,  49.60000,
,,,00.000016560000,  49.60000,
,,,00.000016600000,  49.60000,
,,,00.000016640000,  49.20000,
,,,00.000016680000,  49.20000,
,,,00.000016720000,  49.20000,
,,,00.000016760000,  49.20000,
,,,00.000016800000,  48.80000,
,,,00.000016840000,  48.80000,
,,,00.000016880000,  48.80000,
,,,00.000016920000,  48.40000,
,,,00.000016960000,  48.40000,
,,,00.000017000000,  48.40000,
,,,00.000017040000,  48.40000,
,,,00.000017080000,  48.00000,
,,,00.000017120000,  48.00000,
,,,00.000017160000,  48.00000,
,,,00.000017200000,  48.00000,
,,,00.000017240000,  47.60000,
,,,00.000017280000,  47.60000,
,,,00.000017320000,  47.60000,
,,,00.000017360000,  47.60000,
,,,00.000017400000,  47.20000,
,,,00.000017440000,  47.20000,
,,,00.000017480000,  47.20000,
,,,00.000017520000,  47.20000,
,,,00.000017560000,  46.80000,
,,,00.000017600000,  46.80000,
,,,00.000017640000,  46.80000,
,,,00.000017680000,  46.80000,
,,,00.000017720000,  46.40000,
,,,00.000017760000,  46.40000,
,,,00.000017800000,  46.40000,
,,,00.000017840000,  46.40000,
,,,00.000017880000,  46.00000,
,,,00.000017920000,  46.00000,
,,,00.000017960000,  46.00000,
,,,00.000018000000,  46.00000,
,,,00.000018040000,  45.60000,
,,,00.000018080000,  45.60000,
,,,00.000018120000,  45.60000,
,,,00.000018160000,  45.60000,
,,,00.000018200000,  45.20000,
,,,00.000018240000,  45.20000,
,,,00.000018280000,  45.20000,
,,,00.000018320000,  45.20000,
,,,00.000018360000,  44.80000,
,,,00.000018400000,  44.80000,
,,,00.000018440000,  44.80000,
,,,00.000018480000,  44.80000,
,,,00.000018520000,  44.40000,
,,,00.000018560000,  44.40000,
,,,00.000018600000,  44.40000,
,,,00.000018640000,  44.40000,
,,,00.000018680000,  44.00000,
,,,00.000018720000,  44.00000,
,,,00.000018760000,  44.00000,
,,,00.000018800000,  44.00000,
,,,00.000018840000,  43.60000,
,,,00.000018880000,  43.60000,
,,,00.000018920000,  43.60000,
,,,00.000018960000,  43.60000,
,,,00.000019000000,  43.60000,
,,,00.000019040000,  43.20000,
,,,00.000019080000,  43.20000,
,,,00.000019120000,  43.20000,
,,,00.000019160000,  43.20000,
,,,00.000019200000,  43.20000,
,,,00.000019240000,  42.80000,
,,,00.000019280000,  42.80000,
,,,00.000019320000,  42.80000,
,,,00.000019360000,  42.80000,
,,,00.000019400000,  42.40000,
,,,00.000019440000,  42.40000,
,,,00.000019480000,  42.40000,
,,,00.000019520000,  42.40000,
,,,00.000019560000,  42.00000,
,,,00.000019600000,  42.00000,
,,,00.000019640000,  42.00000,
,,,00.000019680000,  42.00000,
,,,00.000019720000,  42.00000,
,,,00.000019760000,  41.60000,
,,,00.000019800000,  41.60000,
,,,00.000019840000,  41.60000,
,,,00.000019880000,  41.60000,
,,,00.000019920000,  41.60000,
,,,00.000019960000,  41.20000,
,,,00.000020000000,  41.20000,
,,,00.000020040000,  41.20000,
,,,00.000020080000,  41.20000,
,,,00.000020120000,  40.80000,
,,,00.000020160000,  40.80000,
,,,00.000020200000,  40.80000,
,,,00.000020240000,  40.80000,
,,,00.000020280000,  40.80000,
,,,00.000020320000,  40.40000,
,,,00.000020360000,  40.40000,
,,,00.000020400000,  40.40000,
,,,00.000020440000,  40.00000,
,,,00.000020480000,  40.00000,
,,,00.000020520000,  40.00000,
,,,00.000020560000,  40.00000,
,,,00.000020600000,  40.00000,
,,,00.000020640000,  40.00000,
,,,00.000020680000,  39.60000,
,,,00.000020720000,  39.60000,
,,,00.000020760000,  39.60000,
,,,00.000020800000,  39.60000,
,,,00.000020840000,  39.20000,
,,,00.000020880000,  39.20000,
,,,00.000020920000,  39.20000,
,,,00.000020960000,  39.20000,
,,,00.000021000000,  39.20000,
,,,00.000021040000,  39.20000,
,,,00.000021080000,  38.80000,
,,,00.000021120000,  38.80000,
,,,00.000021160000,  38.80000,
,,,00.000021200000,  38.80000,
,,,00.000021240000,  38.80000,
,,,00.000021280000,  38.40000,
,,,00.000021320000,  38.40000,
,,,00.000021360000,  38.40000,
,,,00.000021400000,  38.40000,
,,,00.000021440000,  38.00000,
,,,00.000021480000,  38.00000,
,,,00.000021520000,  38.00000,
,,,00.000021560000,  38.00000,
,,,00.000021600000,  38.00000,
,,,00.000021640000,  37.60000,
,,,00.000021680000,  37.60000,
,,,00.000021720000,  37.60000,
,,,00.000021760000,  37.60000,
,,,00.000021800000,  37.60000,
,,,00.000021840000,  37.20000,
,,,00.000021880000,  37.20000,
,,,00.000021920000,  37.20000,
,,,00.000021960000,  37.20000,
,,,00.000022000000,  37.20000,
